…
#### 5. Найти самого высокого персонажа.

``` r
max(starwars$height, na.rm = TRUE)
```

    [1] 264

#### 6. Найти всех персонажей ниже 170

``` r
starwars %>% select(name, height) %>% filter(height < 170)
```

    # A tibble: 23 × 2
       name                  height
       <chr>                  <int>
     1 C-3PO                    167
     2 R2-D2                     96
     3 Leia Organa              150
     4 Beru Whitesun lars       165
     5 R5-D4                     97
     6 Yoda                      66
     7 Mon Mothma               150
     8 Wicket Systri Warrick     88
     9 Nien Nunb                160
    10 Watto                    137
    # ℹ 13 more rows
…
    Selecting by count

    # A tibble: 1 × 2
      eye_color count
      <chr>     <int>
    1 brown        21

#### 11. Подсчитать среднюю длину имени в каждой расе вселенной Звездных войн.

``` r
starwars %>% group_by(species) %>% summarise(mean(nchar(name), trim = 0, na.rm = TRUE))
```

    # A tibble: 38 × 2
       species   `mean(nchar(name), trim = 0, na.rm = TRUE)`
       <chr>                                           <dbl>
     1 Aleena                                          13   
     2 Besalisk                                        15   
     3 Cerean                                          12   
     4 Chagrian                                        10   
     5 Clawdite                                        10   
     6 Droid                                            4.83
     7 Dug                                              7   
     8 Ewok                                            21   
     9 Geonosian                                       17   
    10 Gungan                                          11.7 
    # ℹ 28 more rows
